{
  "schema": {
    "request": {
      "url" : "http://localhost:8000/___graphql",
      "method" : "POST",
      "postIntrospectionQuery" : true
    }
  },
  "endpoints" : [
    {
      "name": "Gatsby GraphQL",
      "url": "http://localhost:8000/___graphql"
    }
  ]
}